{
"autoplayBgm":true,"autoplayBgs":true,"battleback1Name":"DarkSpace","battleback2Name":"DarkSpace","bgm":{"name":"Dungeon3","pan":0,"pitch":100,"volume":90},"bgs":{"name":"River","pan":0,"pitch":100,"volume":20},"disableDashing":false,"displayName":"Tour Infernale (E1)","encounterList":[],"encounterStep":30,"height":21,"note":"","parallaxLoopX":false,"parallaxLoopY":false,"parallaxName":"","parallaxShow":true,"parallaxSx":0,"parallaxSy":0,"scrollType":0,"specifyBattleback":true,"tilesetId":4,"width":17,
"data":[6467,6466,6466,6466,6466,6466,6466,6466,6466,6466,6466,6466,6466,6466,6466,6466,6470,6465,6464,6464,6464,6464,6464,6464,6464,6464,6464,6464,6464,6464,6464,6464,6464,6468,6465,6464,6464,6464,6464,6464,6464,6464,6464,6464,6464,6464,6464,6464,6464,6464,6468,6465,6464,6464,6464,6464,6464,6464,6464,6464,6464,6464,6464,6464,6464,6464,6464,6468,6473,6472,6472,6472,6472,6472,6472,6472,6472,6472,6472,6472,6472,6472,6472,6472,6476,2897,2909,3003,3005,2910,3003,2993,2993,2993,2993,2993,3005,2910,3003,2993,2993,2993,2068,2068,2068,2068,2068,2068,2068,2068,2068,2068,2068,2068,2068,2068,2068,2068,2068,2048,2048,2048,2052,2076,2076,2076,2076,2076,2076,2076,2076,2076,2056,2048,2048,2048,2048,2048,2048,2072,3003,2993,2982,2980,2981,2993,2982,2980,2996,2064,2048,2048,2048,2048,2048,2048,2072,2907,2901,2976,2960,2984,2906,2976,2960,2984,2064,2048,2048,2048,2048,2048,2048,2072,3002,2908,2976,2960,2984,2908,2976,2960,2984,2064,2048,2048,2048,2048,2048,2048,2072,3001,2982,2961,2960,2962,2980,2965,2988,2998,2064,2048,2048,2048,2048,2048,2048,2072,2910,2976,2960,2960,2960,2964,2998,2898,2900,2064,2048,2048,2048,2048,2048,2048,2072,2994,2965,2988,2968,2960,2984,2898,2865,2888,2064,2048,2048,2048,2048,2048,2048,2072,2976,2984,2910,2976,2964,2998,2882,2892,2889,2064,2048,2048,2048,2048,2048,2048,2072,2976,2962,2980,2961,2984,2907,2903,3002,2908,2064,2048,2048,2048,2048,2048,2048,2072,3000,2988,2988,2988,2990,2993,2993,2991,3005,2064,2048,2048,2048,2048,2048,2048,2050,2068,2068,2068,2068,2068,2068,2068,2068,2068,2049,2048,2048,2048,2076,2076,2076,2076,2076,2076,2076,2076,2076,2076,2076,2076,2076,2076,2076,2076,2076,3005,2907,2909,3003,2993,2993,2993,2993,2993,3005,2910,3003,2993,2993,3005,2907,2897,0,0,0,0,0,0,0,0,0,0,0,0,0,0,0,0,0,0,0,0,0,0,0,0,0,0,0,0,0,0,0,0,0,0,0,0,0,0,0,0,0,0,0,0,0,0,0,0,0,0,0,0,0,0,0,0,0,0,0,0,0,0,0,0,0,0,0,0,0,0,0,0,0,0,0,0,0,0,0,0,0,0,0,0,0,0,0,0,0,0,0,0,0,0,0,0,0,0,0,0,0,0,0,0,0,0,0,0,0,0,0,0,0,0,0,0,0,0,0,0,2226,2212,2228,0,0,2238,0,0,0,0,0,2235,2214,2228,0,0,2225,2221,2200,2198,2237,0,0,0,0,0,0,0,0,2232,2206,2237,0,2164,2180,2232,2217,0,0,0,0,0,0,0,0,0,0,2236,0,0,2172,2154,2180,2236,0,0,0,0,0,0,0,0,0,0,0,2238,2178,2237,2184,2182,0,0,0,0,0,0,0,0,0,0,0,0,2178,2145,2189,0,0,2238,0,0,0,0,0,0,0,0,0,0,2178,2145,2144,0,2226,2228,0,0,0,0,0,0,0,0,0,0,0,2160,2144,2144,2225,2205,2230,0,0,0,0,0,0,0,0,0,0,0,2184,2172,2152,0,2236,2186,0,0,0,0,0,0,0,0,0,0,0,2235,2237,2184,0,2187,2155,2180,0,0,0,0,0,0,0,0,0,0,0,2190,0,2237,0,2160,2168,0,0,0,0,0,0,0,0,0,0,2186,0,0,2180,0,2184,2169,2226,2228,0,0,0,2187,2166,2164,2180,0,2188,0,2226,2182,0,0,2188,2232,2230,0,0,0,0,2184,2172,2182,2238,0,0,2232,0,0,0,0,0,0,0,0,0,0,0,0,0,0,0,0,0,0,0,0,0,0,0,0,0,0,0,0,0,0,0,0,0,0,0,0,0,0,0,0,0,0,0,0,0,0,0,0,0,0,0,0,0,0,0,0,0,0,0,0,0,0,0,0,0,0,0,0,0,0,0,0,0,0,0,0,0,0,0,0,0,0,0,0,0,0,0,0,0,0,0,0,0,0,0,0,0,0,0,0,0,0,0,0,0,0,0,0,0,0,0,0,0,0,0,0,0,0,0,0,0,0,0,0,0,0,0,0,0,0,0,0,0,0,0,0,0,0,0,0,0,0,0,0,0,0,0,0,0,0,0,0,0,0,0,0,0,0,0,0,0,0,0,0,0,0,0,0,0,0,0,0,0,0,0,0,0,0,0,0,0,0,0,0,0,0,0,0,0,0,0,0,0,0,0,0,0,0,0,0,0,0,0,0,0,0,0,0,0,0,0,0,0,0,0,0,0,0,0,0,0,0,0,0,0,0,0,0,0,0,0,0,0,0,0,0,0,0,0,0,0,0,0,0,0,0,0,0,0,0,0,0,0,0,0,0,0,0,0,0,0,0,0,0,0,0,0,0,0,0,0,0,0,0,0,0,0,0,0,0,0,0,0,0,0,0,0,0,0,0,0,0,0,0,0,0,0,0,0,0,0,0,0,0,0,0,0,0,0,0,0,0,0,0,0,0,0,0,0,0,0,0,0,0,0,0,0,0,0,0,0,0,0,0,0,0,0,0,0,0,0,0,0,0,0,0,0,0,0,0,0,0,0,0,0,0,0,0,0,0,0,0,0,0,0,0,0,0,0,0,0,0,0,0,0,0,0,0,0,0,0,0,0,0,0,0,0,0,0,0,0,0,0,0,0,0,0,0,0,0,0,0,0,0,0,0,0,0,0,0,0,0,0,0,0,0,0,0,0,0,0,0,0,0,0,0,0,0,0,0,0,0,0,0,0,0,0,0,0,0,0,0,0,0,0,0,0,0,0,0,0,0,0,0,0,0,0,0,0,0,0,0,0,0,0,0,0,147,0,0,0,0,0,0,0,0,0,0,0,0,0,0,0,0,0,0,0,0,0,0,0,0,0,0,0,0,0,0,0,0,0,34,0,0,0,0,0,0,0,0,0,0,0,0,0,0,0,0,34,0,0,0,0,0,0,0,0,0,0,0,0,0,85,0,0,0,0,0,85,0,0,0,0,0,0,0,0,0,0,93,0,0,0,0,0,93,0,0,0,0,0,0,0,0,0,0,0,0,0,0,0,0,0,0,0,0,0,0,0,0,0,0,0,0,0,0,0,0,0,0,0,0,0,0,0,0,0,0,0,0,0,0,0,0,0,0,0,0,0,0,0,0,0,0,0,0,0,0,0,0,0,0,0,0,0,0,0,0,0,0,0,0,0,0,85,0,0,0,0,0,85,0,0,0,0,0,0,0,0,0,0,93,0,0,0,0,0,93,0,0,0,0,0,0,0,0,0,0,0,0,0,0,0,0,0,0,0,0,0,0,0,0,0,0,0,0,0,0,34,0,0,0,0,0,0,0,0,0,0,0,0,0,0,0,0,34,0,0,0,0,0,0,0,0,0,0,0,0,0,0,0,0,0,0,0,0,0,0,0,0,0,0,0,0,0,0,0,0,0,0,0,0,0,0,0,0,0,0,0,0,0,0,0,0,0,0,0,0,0,0,0,0,0,0,0,0,0,0,0,0,0,0,0,0,0,0,0,0,0,0,0,0,0,0,0,0,0,0,0,0,0,0,0,0,0,0,0,0,0,0,0,0,0,0,0,0,0,0,0,0,0,0,0,0,0,0,0,0,0,0,0,0,0,0,0,0,0,0,0,0,0,0,0,0,0,0,0,0,0,0,0,0,0,0,0,0,0,0,0,0,0,0,0,0,0,0,0,0,0,0,0,0,0,0,0,0,0,0,0,0,0,0,0,0,0,0,0,0,0,0,0,0,0,0,0,0,0,0,0,0,0,0,0,0,0,0,0,0,0,0,0,0,0,0,0,0,0,0,0,0,0,0,0,0,0,0,0,0,0,0,0,0,0,0,0,0,0,0,0,0,0,0,0,0,0,0,0,0,0,0,0,0,0,0,0,0,0,0,0,0,0,0,0,0,0,0,0,0,0,0,0,0,0,0,0,0,0,0,0,0,0,0,0,0,0,0,0,0,0,0,0,0,0,0,0,0,0,0,0,0,0,0,0,0,0,0,0,0,0,0,0,0,0,0,0,0,0,0,0,0,0,0,0,0,0,0,0,0,0,0,0,0,0,0,0,0,0,0,0,0,0,0,0,0,0,0,0,0,0,0,0,0,0,0,0,0,0,0,0,0,0,0,0,0,0,0,0,0,0,0,0,0,0,0,0,0,0,0,0,0,0,0,0,0,0,0,0,0,0,0,0,0,0,0,0,0,0,0,0,0,0,0,0,0,0,0,0,0,0,0,0,0,0,0,0,0,0,0,0,0,0,0,0,0,0,0,0,0,0,0,0,0,0,0,0,0,0,0,0,0,0,0,0,0,0,0,0,0,0,0,0,0,0,0,0,0,0,0,0,0,0,0,0,0,0,0,0,0,0,0,0,0,0,0,0,0,0,0,0,0,0,0,0,0,0,0,0,0,0,0,0,0,0,0,0,0,0,0,0,0,0,0,0,0,0,0,0,0,0,0,0,0,0,0,0,0,0,0,0,0,0,0,0,0,0,0,0,0,0,0,0,0,0,0,0,0,0,0,0,0,0,0,0,0,0,0,0,0,0,0,0,0,0,0,0,0,0,0,0,0,0,0,0,0,0,0,0,0,0,0,0,0,0,0,0,0,0,0,0,0,0,0,0,0,0,0,0,0,0,0,0,0,0,0,0,0,0,0,0,0,0,0,0,0,0,0,0,0,0,0,0,0,0,0,0,0,0,0,0,0,0,0,0,0,0,0,0,0,0,0,0,0,0,0,0,0,0,0,0,0,0,0,0,0,0,0,0,0,0,0,0,0,0,0,0,0,0,0,0,0,0,0,0,0,0,0,0,0,0,0,0,0,0,0,0,0,0,0,0,0,0,0,0,0,0,0,0,0,0,0,0,0,0,0,0,0,0,0,0,0,0,0,0,0,0,0,0,0,0,0,0,0,0,0,0,0,0,0,0,0,0,0,0,0,0,0,0,0,0,0,0,0,0,0,0,0,0,0,0,0,0,0,0,0,0,0,0,0,0,0,0,0,0,0,0,0,0,0,0,0,0,0,0,0,0,0,0,0,0,0,0,0],
"events":[
null,
{"id":1,"name":"EV001","note":"","pages":[{"conditions":{"actorId":1,"actorValid":false,"itemId":1,"itemValid":false,"selfSwitchCh":"A","selfSwitchValid":false,"switch1Id":1,"switch1Valid":false,"switch2Id":1,"switch2Valid":false,"variableId":1,"variableValid":false,"variableValue":0},"directionFix":false,"image":{"tileId":0,"characterName":"Monster","direction":2,"pattern":1,"characterIndex":7},"list":[{"code":121,"indent":0,"parameters":[4,4,1]},{"code":217,"indent":0,"parameters":[]},{"code":101,"indent":0,"parameters":["Monster",7,0,2]},{"code":401,"indent":0,"parameters":["Des humains... \\|"]},{"code":401,"indent":0,"parameters":["Hin hin hin hin... \\|"]},{"code":225,"indent":0,"parameters":[5,9,60,false]},{"code":101,"indent":0,"parameters":["Monster",7,0,2]},{"code":401,"indent":0,"parameters":["VOUS ALLEZ MOURRIR !!!"]},{"code":132,"indent":0,"parameters":[{"name":"Battle3","volume":90,"pitch":100,"pan":0}]},{"code":301,"indent":0,"parameters":[0,86,false,true]},{"code":601,"indent":0,"parameters":[]},{"code":121,"indent":1,"parameters":[4,4,0]},{"code":0,"indent":1,"parameters":[]},{"code":603,"indent":0,"parameters":[]},{"code":101,"indent":1,"parameters":["Monster",7,0,2]},{"code":401,"indent":1,"parameters":["MWAHAHAHAHA !!!"]},{"code":223,"indent":1,"parameters":[[-150,-150,-150,255],60,true]},{"code":111,"indent":1,"parameters":[7,1,0]},{"code":101,"indent":2,"parameters":["Meuhxime",0,0,2]},{"code":401,"indent":2,"parameters":["Quel dommage..."]},{"code":101,"indent":2,"parameters":["Meuhrentin",0,0,2]},{"code":401,"indent":2,"parameters":["Oui, encore plus d'argent pour nous..."]},{"code":111,"indent":2,"parameters":[7,100,0]},{"code":125,"indent":3,"parameters":[1,0,100]},{"code":101,"indent":3,"parameters":["",0,0,2]},{"code":401,"indent":3,"parameters":["Vous perdez 100\\G."]},{"code":0,"indent":3,"parameters":[]},{"code":411,"indent":2,"parameters":[]},{"code":122,"indent":3,"parameters":[9,9,0,3,7,2,0]},{"code":125,"indent":3,"parameters":[1,1,9]},{"code":101,"indent":3,"parameters":["",0,0,2]},{"code":401,"indent":3,"parameters":["Vous perdez \\V[0009]\\G."]},{"code":0,"indent":3,"parameters":[]},{"code":412,"indent":2,"parameters":[]},{"code":0,"indent":2,"parameters":[]},{"code":411,"indent":1,"parameters":[]},{"code":101,"indent":2,"parameters":["Meuhxime",0,0,2]},{"code":401,"indent":2,"parameters":["Quel dommage..."]},{"code":101,"indent":2,"parameters":["Meuhrentin",0,0,2]},{"code":401,"indent":2,"parameters":["Ils n'ont même plus d'or à nous laisser..."]},{"code":0,"indent":2,"parameters":[]},{"code":412,"indent":1,"parameters":[]},{"code":201,"indent":1,"parameters":[0,159,10,27,0,0]},{"code":223,"indent":1,"parameters":[[0,0,0,0],60,true]},{"code":0,"indent":1,"parameters":[]},{"code":604,"indent":0,"parameters":[]},{"code":132,"indent":0,"parameters":[{"name":"Battle1","volume":90,"pitch":100,"pan":0}]},{"code":0,"indent":0,"parameters":[]}],"moveFrequency":1,"moveRoute":{"list":[{"code":0,"parameters":[]}],"repeat":true,"skippable":false,"wait":false},"moveSpeed":3,"moveType":0,"priorityType":1,"stepAnime":false,"through":false,"trigger":0,"walkAnime":true},{"conditions":{"actorId":1,"actorValid":false,"itemId":1,"itemValid":false,"selfSwitchCh":"A","selfSwitchValid":false,"switch1Id":4,"switch1Valid":true,"switch2Id":1,"switch2Valid":false,"variableId":1,"variableValid":false,"variableValue":0},"directionFix":false,"image":{"tileId":0,"characterName":"Damage3","direction":8,"pattern":0,"characterIndex":2},"list":[{"code":101,"indent":0,"parameters":["Monster",7,0,2]},{"code":401,"indent":0,"parameters":["Argh..."]},{"code":205,"indent":0,"parameters":[0,{"list":[{"code":42,"parameters":[240],"indent":null},{"code":15,"parameters":[10],"indent":null},{"code":42,"parameters":[220],"indent":null},{"code":15,"parameters":[10],"indent":0},{"code":42,"parameters":[200],"indent":null},{"code":42,"parameters":[180],"indent":null},{"code":15,"parameters":[10],"indent":0},{"code":42,"parameters":[160],"indent":null},{"code":15,"parameters":[10],"indent":0},{"code":42,"parameters":[140],"indent":null},{"code":15,"parameters":[10],"indent":0},{"code":42,"parameters":[120],"indent":null},{"code":15,"parameters":[10],"indent":0},{"code":42,"parameters":[100],"indent":null},{"code":15,"parameters":[10],"indent":0},{"code":42,"parameters":[80],"indent":null},{"code":15,"parameters":[10],"indent":0},{"code":42,"parameters":[60],"indent":null},{"code":15,"parameters":[10],"indent":0},{"code":42,"parameters":[40],"indent":null},{"code":15,"parameters":[10],"indent":0},{"code":42,"parameters":[20],"indent":null},{"code":15,"parameters":[10],"indent":0},{"code":42,"parameters":[0],"indent":null},{"code":0}],"repeat":false,"skippable":false,"wait":true}]},{"code":505,"indent":0,"parameters":[{"code":42,"parameters":[240],"indent":null}]},{"code":505,"indent":0,"parameters":[{"code":15,"parameters":[10],"indent":null}]},{"code":505,"indent":0,"parameters":[{"code":42,"parameters":[220],"indent":null}]},{"code":505,"indent":0,"parameters":[{"code":15,"parameters":[10],"indent":0}]},{"code":505,"indent":0,"parameters":[{"code":42,"parameters":[200],"indent":null}]},{"code":505,"indent":0,"parameters":[{"code":42,"parameters":[180],"indent":null}]},{"code":505,"indent":0,"parameters":[{"code":15,"parameters":[10],"indent":0}]},{"code":505,"indent":0,"parameters":[{"code":42,"parameters":[160],"indent":null}]},{"code":505,"indent":0,"parameters":[{"code":15,"parameters":[10],"indent":0}]},{"code":505,"indent":0,"parameters":[{"code":42,"parameters":[140],"indent":null}]},{"code":505,"indent":0,"parameters":[{"code":15,"parameters":[10],"indent":0}]},{"code":505,"indent":0,"parameters":[{"code":42,"parameters":[120],"indent":null}]},{"code":505,"indent":0,"parameters":[{"code":15,"parameters":[10],"indent":0}]},{"code":505,"indent":0,"parameters":[{"code":42,"parameters":[100],"indent":null}]},{"code":505,"indent":0,"parameters":[{"code":15,"parameters":[10],"indent":0}]},{"code":505,"indent":0,"parameters":[{"code":42,"parameters":[80],"indent":null}]},{"code":505,"indent":0,"parameters":[{"code":15,"parameters":[10],"indent":0}]},{"code":505,"indent":0,"parameters":[{"code":42,"parameters":[60],"indent":null}]},{"code":505,"indent":0,"parameters":[{"code":15,"parameters":[10],"indent":0}]},{"code":505,"indent":0,"parameters":[{"code":42,"parameters":[40],"indent":null}]},{"code":505,"indent":0,"parameters":[{"code":15,"parameters":[10],"indent":0}]},{"code":505,"indent":0,"parameters":[{"code":42,"parameters":[20],"indent":null}]},{"code":505,"indent":0,"parameters":[{"code":15,"parameters":[10],"indent":0}]},{"code":505,"indent":0,"parameters":[{"code":42,"parameters":[0],"indent":null}]},{"code":121,"indent":0,"parameters":[4,4,1]},{"code":121,"indent":0,"parameters":[13,13,1]},{"code":121,"indent":0,"parameters":[111,111,0]},{"code":214,"indent":0,"parameters":[]},{"code":0,"indent":0,"parameters":[]}],"moveFrequency":3,"moveRoute":{"list":[{"code":0,"parameters":[]}],"repeat":true,"skippable":false,"wait":false},"moveSpeed":3,"moveType":0,"priorityType":1,"stepAnime":false,"through":false,"trigger":3,"walkAnime":true}],"x":8,"y":11},
{"id":2,"name":"EV002","note":"","pages":[{"conditions":{"actorId":1,"actorValid":false,"itemId":1,"itemValid":false,"selfSwitchCh":"A","selfSwitchValid":false,"switch1Id":1,"switch1Valid":false,"switch2Id":1,"switch2Valid":false,"variableId":1,"variableValid":false,"variableValue":0},"directionFix":true,"image":{"characterIndex":0,"characterName":"!Chest","direction":2,"pattern":1,"tileId":0},"list":[{"code":250,"indent":0,"parameters":[{"name":"Chest1","pan":0,"pitch":100,"volume":90}]},{"code":205,"indent":0,"parameters":[0,{"list":[{"code":36},{"code":17},{"code":15,"parameters":[3]},{"code":18},{"code":15,"parameters":[3]},{"code":0}],"repeat":false,"skippable":false,"wait":true}]},{"code":505,"indent":0,"parameters":[{"code":36}]},{"code":505,"indent":0,"parameters":[{"code":17}]},{"code":505,"indent":0,"parameters":[{"code":15,"parameters":[3]}]},{"code":505,"indent":0,"parameters":[{"code":18}]},{"code":505,"indent":0,"parameters":[{"code":15,"parameters":[3]}]},{"code":121,"indent":0,"parameters":[112,112,0]},{"code":125,"indent":0,"parameters":[0,0,10]},{"code":101,"indent":0,"parameters":["",0,0,2]},{"code":401,"indent":0,"parameters":["10\\G ont été trouvé(e)s!"]},{"code":0,"indent":0,"parameters":[]}],"moveFrequency":3,"moveRoute":{"list":[{"code":0,"parameters":[]}],"repeat":true,"skippable":false,"wait":false},"moveSpeed":3,"moveType":0,"priorityType":1,"stepAnime":false,"through":false,"trigger":0,"walkAnime":false},{"conditions":{"actorId":1,"actorValid":false,"itemId":1,"itemValid":false,"selfSwitchCh":"A","selfSwitchValid":false,"switch1Id":112,"switch1Valid":true,"switch2Id":1,"switch2Valid":false,"variableId":1,"variableValid":false,"variableValue":0},"directionFix":true,"image":{"characterIndex":0,"characterName":"!Chest","direction":8,"pattern":1,"tileId":0},"list":[{"code":0,"indent":0,"parameters":[]}],"moveFrequency":3,"moveRoute":{"list":[{"code":0,"parameters":[]}],"repeat":true,"skippable":false,"wait":false},"moveSpeed":3,"moveType":0,"priorityType":1,"stepAnime":false,"through":false,"trigger":0,"walkAnime":false}],"x":7,"y":5},
null,
null,
null,
null,
null,
null,
null,
null,
null,
null,
null,
null,
null,
null,
null,
null,
null,
null,
null,
null,
null,
null,
null,
null,
null,
null,
null,
null,
null,
null,
null,
null,
null,
null,
null,
null,
null,
null,
null,
null,
null,
{"id":44,"name":"EV044","note":"","pages":[{"conditions":{"actorId":1,"actorValid":false,"itemId":1,"itemValid":false,"selfSwitchCh":"A","selfSwitchValid":false,"switch1Id":1,"switch1Valid":false,"switch2Id":1,"switch2Valid":false,"variableId":1,"variableValid":false,"variableValue":0},"directionFix":false,"image":{"characterIndex":6,"characterName":"!Door1","direction":2,"pattern":0,"tileId":0},"list":[{"code":111,"indent":0,"parameters":[0,111,0]},{"code":102,"indent":1,"parameters":[["Continuer","Sortir"],1,0,2,0]},{"code":402,"indent":1,"parameters":[0,"Continuer"]},{"code":250,"indent":2,"parameters":[{"name":"Open2","volume":90,"pitch":60,"pan":0}]},{"code":205,"indent":2,"parameters":[0,{"list":[{"code":17},{"code":15,"parameters":[3]},{"code":18},{"code":15,"parameters":[3]},{"code":19},{"code":37},{"code":0}],"repeat":false,"skippable":false,"wait":true}]},{"code":505,"indent":2,"parameters":[{"code":17}]},{"code":505,"indent":2,"parameters":[{"code":15,"parameters":[3]}]},{"code":505,"indent":2,"parameters":[{"code":18}]},{"code":505,"indent":2,"parameters":[{"code":15,"parameters":[3]}]},{"code":505,"indent":2,"parameters":[{"code":19}]},{"code":505,"indent":2,"parameters":[{"code":37}]},{"code":205,"indent":2,"parameters":[-1,{"list":[{"code":12},{"code":0}],"repeat":false,"skippable":true,"wait":true}]},{"code":505,"indent":2,"parameters":[{"code":12}]},{"code":250,"indent":2,"parameters":[{"name":"Move1","pan":0,"pitch":100,"volume":90}]},{"code":121,"indent":2,"parameters":[101,101,1]},{"code":121,"indent":2,"parameters":[4,4,1]},{"code":121,"indent":2,"parameters":[8,8,1]},{"code":121,"indent":2,"parameters":[1,1,1]},{"code":246,"indent":2,"parameters":[3]},{"code":201,"indent":2,"parameters":[0,164,8,19,0,0]},{"code":121,"indent":2,"parameters":[13,13,0]},{"code":121,"indent":2,"parameters":[112,112,1]},{"code":0,"indent":2,"parameters":[]},{"code":402,"indent":1,"parameters":[1,"Sortir"]},{"code":250,"indent":2,"parameters":[{"name":"Open2","volume":90,"pitch":60,"pan":0}]},{"code":205,"indent":2,"parameters":[0,{"list":[{"code":17},{"code":15,"parameters":[3]},{"code":18},{"code":15,"parameters":[3]},{"code":19},{"code":37},{"code":0}],"repeat":false,"skippable":false,"wait":true}]},{"code":505,"indent":2,"parameters":[{"code":17}]},{"code":505,"indent":2,"parameters":[{"code":15,"parameters":[3]}]},{"code":505,"indent":2,"parameters":[{"code":18}]},{"code":505,"indent":2,"parameters":[{"code":15,"parameters":[3]}]},{"code":505,"indent":2,"parameters":[{"code":19}]},{"code":505,"indent":2,"parameters":[{"code":37}]},{"code":205,"indent":2,"parameters":[-1,{"list":[{"code":12},{"code":0}],"repeat":false,"skippable":true,"wait":true}]},{"code":505,"indent":2,"parameters":[{"code":12}]},{"code":250,"indent":2,"parameters":[{"name":"Move1","pan":0,"pitch":100,"volume":90}]},{"code":121,"indent":2,"parameters":[101,101,1]},{"code":201,"indent":2,"parameters":[0,159,10,27,0,0]},{"code":0,"indent":2,"parameters":[]},{"code":404,"indent":1,"parameters":[]},{"code":0,"indent":1,"parameters":[]},{"code":412,"indent":0,"parameters":[]},{"code":0,"indent":0,"parameters":[]}],"moveFrequency":3,"moveRoute":{"list":[{"code":0,"parameters":[]}],"repeat":true,"skippable":false,"wait":false},"moveSpeed":3,"moveType":0,"priorityType":1,"stepAnime":false,"through":false,"trigger":1,"walkAnime":false}],"x":8,"y":4},
{"id":45,"name":"EV045","note":"","pages":[{"conditions":{"actorId":1,"actorValid":false,"itemId":1,"itemValid":false,"selfSwitchCh":"A","selfSwitchValid":false,"switch1Id":13,"switch1Valid":true,"switch2Id":1,"switch2Valid":false,"variableId":1,"variableValid":false,"variableValue":0},"directionFix":false,"image":{"tileId":0,"characterName":"!Flame","direction":2,"pattern":0,"characterIndex":5},"list":[{"code":0,"indent":0,"parameters":[]}],"moveFrequency":2,"moveRoute":{"list":[{"code":0,"parameters":[]}],"repeat":true,"skippable":false,"wait":false},"moveSpeed":3,"moveType":0,"priorityType":1,"stepAnime":true,"through":false,"trigger":4,"walkAnime":true}],"x":8,"y":7},
null,
null,
null
]
}