[
null,
{"id":1,"animationId":-1,"damage":{"critical":true,"elementId":-1,"formula":"a.atk * 4 - b.def * 2","type":1,"variance":20},"description":"","effects":[{"code":21,"dataId":0,"value1":1,"value2":0}],"hitType":1,"iconIndex":76,"message1":" attaque !","message2":"","mpCost":0,"name":"Attaque","note":"Compétence #1 sera utilisée lorsque\nvous sélectionnerez la commande Attaque.","occasion":1,"repeats":1,"requiredWtypeId1":0,"requiredWtypeId2":0,"scope":1,"speed":0,"stypeId":0,"successRate":100,"tpCost":0,"tpGain":10},
{"id":2,"animationId":0,"damage":{"critical":false,"elementId":0,"formula":"0","type":0,"variance":20},"description":"","effects":[{"code":21,"dataId":2,"value1":1,"value2":0}],"hitType":0,"iconIndex":81,"message1":" garde.","message2":"","mpCost":0,"name":"Garde","note":"Compétence #2 sera utilisée lorsque\nvous sélectionnerez la commande Garde.","occasion":1,"repeats":1,"requiredWtypeId1":0,"requiredWtypeId2":0,"scope":11,"speed":2000,"stypeId":0,"successRate":100,"tpCost":0,"tpGain":10},
{"id":3,"animationId":-1,"damage":{"critical":true,"elementId":-1,"formula":"a.atk * 4 - b.def * 2","type":1,"variance":20},"description":"","effects":[{"code":21,"dataId":0,"value1":1,"value2":0}],"hitType":1,"iconIndex":76,"message1":" attaque !","message2":"","mpCost":0,"name":"Attaque Consécutive","note":"","occasion":1,"repeats":2,"requiredWtypeId1":0,"requiredWtypeId2":0,"scope":1,"speed":0,"stypeId":0,"successRate":100,"tpCost":0,"tpGain":5},
{"id":4,"animationId":-1,"damage":{"critical":true,"elementId":-1,"formula":"a.atk * 4 - b.def * 2","type":1,"variance":20},"description":"","effects":[{"code":21,"dataId":0,"value1":1,"value2":0}],"hitType":1,"iconIndex":76,"message1":" attaque !","message2":"","mpCost":0,"name":"Double Attaque","note":"","occasion":1,"repeats":1,"requiredWtypeId1":0,"requiredWtypeId2":0,"scope":4,"speed":0,"stypeId":0,"successRate":100,"tpCost":0,"tpGain":5},
{"id":5,"animationId":-1,"damage":{"critical":true,"elementId":-1,"formula":"a.atk * 4 - b.def * 2","type":1,"variance":20},"description":"","effects":[{"code":21,"dataId":0,"value1":1,"value2":0}],"hitType":1,"iconIndex":76,"message1":" attaque !","message2":"","mpCost":0,"name":"Triple Attaque","note":"","occasion":1,"repeats":1,"requiredWtypeId1":0,"requiredWtypeId2":0,"scope":5,"speed":0,"stypeId":0,"successRate":100,"tpCost":0,"tpGain":4},
{"id":6,"animationId":0,"damage":{"critical":false,"elementId":0,"formula":"0","type":0,"variance":20},"description":"","effects":[{"code":41,"dataId":0,"value1":0,"value2":0}],"hitType":0,"iconIndex":82,"message1":" s'enfuit.","message2":"","mpCost":0,"name":"Fuire","note":"","occasion":1,"repeats":1,"requiredWtypeId1":0,"requiredWtypeId2":0,"scope":11,"speed":0,"stypeId":0,"successRate":100,"tpCost":0,"tpGain":0},
{"id":7,"animationId":0,"damage":{"critical":false,"elementId":0,"formula":"0","type":0,"variance":20},"description":"","effects":[],"hitType":0,"iconIndex":81,"message1":" attend.","message2":"","mpCost":0,"name":"Attendre","note":"","occasion":1,"repeats":1,"requiredWtypeId1":0,"requiredWtypeId2":0,"scope":0,"speed":0,"stypeId":0,"successRate":100,"tpCost":0,"tpGain":10},
{"id":8,"animationId":41,"damage":{"critical":true,"elementId":0,"formula":"100 + a.mat*3","type":3,"variance":20},"description":"Oooom !","effects":[],"hitType":0,"iconIndex":72,"message1":" lance %1 !","message2":"","mpCost":5,"name":"Guérison","note":"","occasion":0,"repeats":1,"requiredWtypeId1":0,"requiredWtypeId2":0,"scope":7,"speed":0,"stypeId":1,"successRate":100,"tpCost":0,"tpGain":10},
{"id":9,"animationId":66,"damage":{"critical":true,"elementId":2,"formula":"100 + a.mat * 3 - b.mdf * 2","type":1,"variance":20},"description":"Prouf !","effects":[{"code":21,"dataId":11,"value1":0.05,"value2":0}],"hitType":2,"iconIndex":64,"message1":" lance %1 !","message2":"","mpCost":5,"name":"Feu","note":"","occasion":1,"repeats":1,"requiredWtypeId1":0,"requiredWtypeId2":0,"scope":1,"speed":0,"stypeId":1,"successRate":100,"tpCost":0,"tpGain":10},
{"id":10,"animationId":121,"damage":{"critical":true,"elementId":4,"formula":"100 + a.mat * 2 - b.mdf * 2","type":1,"variance":20},"description":"Crzzzkzzt !","effects":[],"hitType":2,"iconIndex":66,"message1":" lance %1 !","message2":"","mpCost":5,"name":"Étincelle","note":"","occasion":1,"repeats":1,"requiredWtypeId1":0,"requiredWtypeId2":0,"scope":2,"speed":0,"stypeId":1,"successRate":100,"tpCost":0,"tpGain":4},
{"id":11,"animationId":118,"damage":{"critical":true,"elementId":0,"formula":"100 + a.mat * 6 - b.mdf * 2","type":5,"variance":20},"description":"Que la vache sacrée nous protège !","effects":[{"code":21,"dataId":6,"value1":10,"value2":0},{"code":21,"dataId":5,"value1":10,"value2":0}],"hitType":2,"iconIndex":84,"message1":" lance %1 !","message2":"","mpCost":30,"name":"Appel D'Audhumla","note":"","occasion":1,"repeats":1,"requiredWtypeId1":0,"requiredWtypeId2":0,"scope":2,"speed":0,"stypeId":1,"successRate":100,"tpCost":0,"tpGain":4},
{"id":12,"animationId":21,"damage":{"critical":true,"elementId":-1,"formula":"a.atk * 4 - b.def * 2","type":1,"variance":20},"description":"Il est pas frais mon poisson ?!","effects":[],"hitType":0,"iconIndex":77,"message1":" lance %1 !","message2":"","mpCost":5,"name":"Frappe Carpéenne","note":"","occasion":1,"repeats":1,"requiredWtypeId1":0,"requiredWtypeId2":0,"scope":2,"speed":0,"stypeId":2,"successRate":100,"tpCost":0,"tpGain":4},
{"id":13,"animationId":58,"damage":{"critical":true,"elementId":9,"formula":"a.atk * 6 - b.def * 2","type":5,"variance":20},"description":"Faut pas énerver les carpes !","effects":[{"code":21,"dataId":9,"value1":10,"value2":0}],"hitType":0,"iconIndex":5,"message1":" lance %1 !","message2":"","mpCost":30,"name":"Carpe Diem","note":"","occasion":1,"repeats":1,"requiredWtypeId1":0,"requiredWtypeId2":0,"scope":2,"speed":0,"stypeId":2,"successRate":100,"tpCost":0,"tpGain":4},
{"id":14,"animationId":67,"damage":{"critical":true,"elementId":2,"formula":"150 + a.mat * 5 - b.mdf * 2","type":1,"variance":20},"description":"Faut être taré pour utiliser cette attaque !","effects":[{"code":21,"dataId":11,"value1":0.5,"value2":0}],"hitType":2,"iconIndex":17,"message1":" lance %1 !","message2":"","mpCost":30,"name":"Pyrotechnie En Chaîne","note":"","occasion":1,"repeats":1,"requiredWtypeId1":0,"requiredWtypeId2":0,"scope":6,"speed":0,"stypeId":1,"successRate":100,"tpCost":0,"tpGain":4},
{"id":15,"animationId":122,"damage":{"critical":true,"elementId":0,"formula":"100 + a.mat*3","type":3,"variance":20},"description":"Tu sais quoi ? Pouêêêête !","effects":[],"hitType":0,"iconIndex":67,"message1":" lance %1","message2":"","mpCost":15,"name":"Pouêêêête !","note":"","occasion":0,"repeats":1,"requiredWtypeId1":0,"requiredWtypeId2":0,"scope":8,"speed":0,"stypeId":1,"successRate":100,"tpCost":0,"tpGain":4},
{"id":16,"animationId":49,"damage":{"critical":false,"elementId":0,"formula":"100 + a.mat","type":3,"variance":20},"description":"Réveille toi ou je te chatouille !","effects":[{"code":22,"dataId":1,"value1":1,"value2":0},{"code":11,"dataId":0,"value1":0.5,"value2":0}],"hitType":0,"iconIndex":19,"message1":" lance %1 !","message2":"","mpCost":30,"name":"Chatouille","note":"","occasion":0,"repeats":1,"requiredWtypeId1":0,"requiredWtypeId2":0,"scope":9,"speed":0,"stypeId":1,"successRate":100,"tpCost":0,"tpGain":10},
{"id":17,"animationId":-1,"damage":{"critical":true,"elementId":-1,"formula":"a.atk * 4 - b.def * 2","type":1,"variance":20},"description":"","effects":[{"code":21,"dataId":4,"value1":1,"value2":0}],"hitType":1,"iconIndex":2,"message1":" attaque !","message2":"","mpCost":0,"name":"(M) Attaque Venimeuse","note":"","occasion":1,"repeats":1,"requiredWtypeId1":0,"requiredWtypeId2":0,"scope":1,"speed":0,"stypeId":0,"successRate":100,"tpCost":0,"tpGain":10},
{"id":18,"animationId":-1,"damage":{"critical":true,"elementId":-1,"formula":"a.atk * 4 - b.def * 2","type":1,"variance":20},"description":"","effects":[{"code":21,"dataId":0,"value1":1,"value2":0},{"code":21,"dataId":10,"value1":10,"value2":0}],"hitType":1,"iconIndex":8,"message1":" attaque !","message2":"","mpCost":0,"name":"(M) Fée Dodo","note":"Compétence #1 sera utilisée lorsque\nvous sélectionnerez la commande Attaque.","occasion":1,"repeats":1,"requiredWtypeId1":0,"requiredWtypeId2":0,"scope":1,"speed":0,"stypeId":0,"successRate":100,"tpCost":0,"tpGain":10},
{"id":19,"animationId":53,"damage":{"critical":false,"elementId":0,"formula":"0","type":0,"variance":20},"description":"Oh yea !","effects":[{"code":12,"dataId":0,"value1":0.1,"value2":0}],"hitType":0,"iconIndex":75,"message1":" lance %1 !","message2":"","mpCost":0,"name":"Cocktail de mana","note":"","occasion":1,"repeats":1,"requiredWtypeId1":0,"requiredWtypeId2":0,"scope":11,"speed":0,"stypeId":1,"successRate":100,"tpCost":50,"tpGain":0},
{"id":20,"animationId":42,"damage":{"critical":true,"elementId":0,"formula":"150 + a.mat","type":3,"variance":20},"description":"Je vais te soigner Gaïa !","effects":[],"hitType":0,"iconIndex":72,"message1":" lance %1 !","message2":"","mpCost":3,"name":"Mercurocroum","note":"","occasion":0,"repeats":1,"requiredWtypeId1":0,"requiredWtypeId2":0,"scope":7,"speed":0,"stypeId":1,"successRate":100,"tpCost":0,"tpGain":10},
{"id":21,"animationId":67,"damage":{"critical":false,"elementId":2,"formula":"100 + a.mat * 2 - b.mdf * 2","type":1,"variance":20},"description":"Ou petite flamme toute riquiqui...","effects":[],"hitType":2,"iconIndex":64,"message1":" lance %1 !","message2":"","mpCost":3,"name":"Feuriken","note":"","occasion":1,"repeats":1,"requiredWtypeId1":0,"requiredWtypeId2":0,"scope":1,"speed":0,"stypeId":1,"successRate":100,"tpCost":0,"tpGain":10},
{"id":22,"animationId":82,"damage":{"critical":true,"elementId":5,"formula":"50 + a.atk * 2 - b.def * 2","type":1,"variance":20},"description":"Magicarpe VS Chrysacier","effects":[],"hitType":0,"iconIndex":67,"message1":" lance %1 !","message2":"","mpCost":3,"name":"Trempette","note":"","occasion":1,"repeats":1,"requiredWtypeId1":0,"requiredWtypeId2":0,"scope":1,"speed":0,"stypeId":2,"successRate":100,"tpCost":0,"tpGain":10},
{"id":23,"animationId":53,"damage":{"critical":false,"elementId":0,"formula":"0","type":0,"variance":20},"description":"Oh yea !","effects":[{"code":12,"dataId":0,"value1":0.1,"value2":0}],"hitType":0,"iconIndex":75,"message1":" lance %1 !","message2":"","mpCost":0,"name":"Cocktail de mana","note":"","occasion":1,"repeats":1,"requiredWtypeId1":0,"requiredWtypeId2":0,"scope":11,"speed":0,"stypeId":2,"successRate":100,"tpCost":50,"tpGain":0},
{"id":24,"animationId":42,"damage":{"critical":true,"elementId":0,"formula":"100 + a.mat*3","type":3,"variance":20},"description":"Sniiiiiif ! Haaaaaaa !","effects":[],"hitType":0,"iconIndex":241,"message1":" lance %1 !","message2":"","mpCost":5,"name":"Manarphine","note":"","occasion":0,"repeats":1,"requiredWtypeId1":0,"requiredWtypeId2":0,"scope":11,"speed":0,"stypeId":1,"successRate":100,"tpCost":0,"tpGain":10},
{"id":25,"animationId":51,"damage":{"critical":true,"elementId":0,"formula":"50","type":3,"variance":20},"description":"BANANA !!!","effects":[{"code":31,"dataId":2,"value1":4,"value2":0},{"code":31,"dataId":4,"value1":4,"value2":0}],"hitType":0,"iconIndex":73,"message1":" lance %1","message2":"","mpCost":5,"name":"Banana !","note":"","occasion":0,"repeats":1,"requiredWtypeId1":0,"requiredWtypeId2":0,"scope":11,"speed":0,"stypeId":2,"successRate":100,"tpCost":0,"tpGain":10},
{"id":26,"animationId":6,"damage":{"critical":false,"elementId":0,"formula":"a.atk * 4 - b.def * 2","type":1,"variance":20},"description":"","effects":[],"hitType":1,"iconIndex":76,"message1":" attaque !","message2":"","mpCost":0,"name":"(M) Attaque tous","note":"","occasion":1,"repeats":1,"requiredWtypeId1":0,"requiredWtypeId2":0,"scope":2,"speed":0,"stypeId":0,"successRate":100,"tpCost":0,"tpGain":0},
{"id":27,"animationId":62,"damage":{"critical":false,"elementId":0,"formula":"0","type":0,"variance":20},"description":"","effects":[{"code":21,"dataId":10,"value1":1,"value2":0}],"hitType":2,"iconIndex":8,"message1":" attaque !","message2":"","mpCost":0,"name":"(M) Spore soporifique","note":"","occasion":1,"repeats":1,"requiredWtypeId1":0,"requiredWtypeId2":0,"scope":1,"speed":0,"stypeId":1,"successRate":100,"tpCost":0,"tpGain":0},
{"id":28,"animationId":101,"damage":{"critical":true,"elementId":9,"formula":"100 + a.mat * 2 - b.mdf * 2","type":1,"variance":20},"description":"","effects":[],"hitType":2,"iconIndex":71,"message1":" attaque !","message2":"","mpCost":5,"name":"(M) Attaque ténébreuse","note":"","occasion":1,"repeats":1,"requiredWtypeId1":0,"requiredWtypeId2":0,"scope":1,"speed":0,"stypeId":1,"successRate":100,"tpCost":0,"tpGain":0},
{"id":29,"animationId":46,"damage":{"critical":true,"elementId":0,"formula":"10","type":2,"variance":20},"description":"","effects":[],"hitType":0,"iconIndex":67,"message1":" attaque !","message2":"","mpCost":0,"name":"(M) Absorbtion de mana","note":"","occasion":1,"repeats":1,"requiredWtypeId1":0,"requiredWtypeId2":0,"scope":1,"speed":0,"stypeId":1,"successRate":100,"tpCost":0,"tpGain":0},
{"id":30,"animationId":81,"damage":{"critical":true,"elementId":5,"formula":"100 + a.mat * 2 - b.mdf * 2","type":1,"variance":20},"description":"","effects":[],"hitType":2,"iconIndex":67,"message1":" attaque !","message2":"","mpCost":5,"name":"(M) Attaque aquatique","note":"","occasion":1,"repeats":1,"requiredWtypeId1":0,"requiredWtypeId2":0,"scope":1,"speed":0,"stypeId":2,"successRate":100,"tpCost":0,"tpGain":10},
{"id":31,"animationId":81,"damage":{"critical":true,"elementId":5,"formula":"100 + a.mat * 2 - b.mdf * 2","type":1,"variance":20},"description":"","effects":[],"hitType":2,"iconIndex":67,"message1":" attaque !","message2":"","mpCost":5,"name":"(M) Attaque aquatique double","note":"","occasion":1,"repeats":2,"requiredWtypeId1":0,"requiredWtypeId2":0,"scope":3,"speed":0,"stypeId":2,"successRate":100,"tpCost":0,"tpGain":10},
{"id":32,"animationId":102,"damage":{"critical":true,"elementId":9,"formula":"100 + a.mat * 2 - b.mdf * 2","type":1,"variance":20},"description":"","effects":[],"hitType":2,"iconIndex":71,"message1":" attaque !","message2":"","mpCost":10,"name":"(M) Attaque ténébreuse Tous","note":"","occasion":1,"repeats":1,"requiredWtypeId1":0,"requiredWtypeId2":0,"scope":2,"speed":0,"stypeId":1,"successRate":100,"tpCost":0,"tpGain":0},
{"id":33,"animationId":5,"damage":{"critical":true,"elementId":4,"formula":"100 + a.mat * 2 - b.mdf * 2","type":1,"variance":20},"description":"","effects":[],"hitType":2,"iconIndex":66,"message1":" attaque !","message2":"","mpCost":5,"name":"(M) Attaque foudroyante","note":"","occasion":1,"repeats":1,"requiredWtypeId1":0,"requiredWtypeId2":0,"scope":1,"speed":0,"stypeId":2,"successRate":100,"tpCost":0,"tpGain":10},
{"id":34,"animationId":33,"damage":{"critical":false,"elementId":0,"formula":"a.atk * 4 - b.def * ","type":1,"variance":20},"description":"","effects":[{"code":21,"dataId":7,"value1":1,"value2":0}],"hitType":2,"iconIndex":5,"message1":" attaque !","message2":"","mpCost":0,"name":"(M) Piqûre de rage","note":"","occasion":1,"repeats":1,"requiredWtypeId1":0,"requiredWtypeId2":0,"scope":1,"speed":0,"stypeId":1,"successRate":100,"tpCost":0,"tpGain":0},
{"id":35,"animationId":38,"damage":{"critical":true,"elementId":-1,"formula":"a.atk * 4 - b.def * 2","type":1,"variance":20},"description":"","effects":[{"code":21,"dataId":0,"value1":1,"value2":0}],"hitType":1,"iconIndex":76,"message1":" attaque !","message2":"","mpCost":0,"name":"(M) Attaque Tous","note":"Compétence #1 sera utilisée lorsque\nvous sélectionnerez la commande Attaque.","occasion":1,"repeats":1,"requiredWtypeId1":0,"requiredWtypeId2":0,"scope":2,"speed":0,"stypeId":0,"successRate":100,"tpCost":0,"tpGain":10},
{"id":36,"animationId":2,"damage":{"critical":true,"elementId":7,"formula":"100 + a.mat * 2 - b.mdf * 2","type":1,"variance":20},"description":"","effects":[],"hitType":2,"iconIndex":69,"message1":" attaque !","message2":"","mpCost":5,"name":"(M) Attaque aérienne","note":"","occasion":1,"repeats":1,"requiredWtypeId1":0,"requiredWtypeId2":0,"scope":1,"speed":0,"stypeId":2,"successRate":100,"tpCost":0,"tpGain":10},
{"id":37,"animationId":42,"damage":{"critical":true,"elementId":0,"formula":"100 + a.mat*3","type":3,"variance":20},"description":"","effects":[],"hitType":0,"iconIndex":72,"message1":"lance Guérison !","message2":"","mpCost":5,"name":"(M) Auto-guérison","note":"","occasion":0,"repeats":1,"requiredWtypeId1":0,"requiredWtypeId2":0,"scope":11,"speed":0,"stypeId":1,"successRate":100,"tpCost":0,"tpGain":10},
{"id":38,"animationId":123,"damage":{"critical":false,"elementId":0,"formula":"0","type":0,"variance":20},"description":"L'union fait la force !","effects":[{"code":31,"dataId":3,"value1":4,"value2":0}],"hitType":0,"iconIndex":81,"message1":" lance %1","message2":"","mpCost":10,"name":"Troupeau","note":"","occasion":1,"repeats":1,"requiredWtypeId1":0,"requiredWtypeId2":0,"scope":8,"speed":0,"stypeId":1,"successRate":100,"tpCost":0,"tpGain":0},
{"id":39,"animationId":124,"damage":{"critical":true,"elementId":2,"formula":"100 + a.mat * 3 - b.mdf * 2","type":1,"variance":20},"description":"Va falloir te calmer là !","effects":[{"code":21,"dataId":11,"value1":0.1,"value2":0}],"hitType":2,"iconIndex":64,"message1":" lance %1 !","message2":"","mpCost":10,"name":"Brasier","note":"","occasion":1,"repeats":1,"requiredWtypeId1":0,"requiredWtypeId2":0,"scope":2,"speed":0,"stypeId":1,"successRate":100,"tpCost":0,"tpGain":10},
{"id":40,"animationId":125,"damage":{"critical":false,"elementId":0,"formula":"0","type":0,"variance":20},"description":"BADA BADA BWAAAA !!!","effects":[{"code":21,"dataId":6,"value1":0.6,"value2":0}],"hitType":0,"iconIndex":21,"message1":" lance %1 ","message2":"","mpCost":10,"name":"BWAAAAAA !","note":"","occasion":1,"repeats":1,"requiredWtypeId1":0,"requiredWtypeId2":0,"scope":2,"speed":0,"stypeId":2,"successRate":100,"tpCost":0,"tpGain":0},
{"id":41,"animationId":126,"damage":{"critical":false,"elementId":0,"formula":"100 + a.mat * 2 - b.mdf * 2","type":0,"variance":20},"description":"Graou ! Grrrr !","effects":[{"code":31,"dataId":2,"value1":4,"value2":0},{"code":31,"dataId":4,"value1":4,"value2":0},{"code":31,"dataId":3,"value1":4,"value2":0},{"code":31,"dataId":5,"value1":4,"value2":0},{"code":31,"dataId":6,"value1":4,"value2":0}],"hitType":0,"iconIndex":21,"message1":" lance %1 ","message2":"","mpCost":10,"name":"GRRR !","note":"","occasion":1,"repeats":1,"requiredWtypeId1":0,"requiredWtypeId2":0,"scope":11,"speed":0,"stypeId":1,"successRate":100,"tpCost":0,"tpGain":0},
{"id":42,"animationId":66,"damage":{"critical":true,"elementId":2,"formula":"100 + a.mat * 2 - b.mdf * 2","type":1,"variance":20},"description":"","effects":[{"code":21,"dataId":11,"value1":0.05,"value2":0}],"hitType":2,"iconIndex":64,"message1":" attaque !","message2":"","mpCost":5,"name":"(M) Feu","note":"","occasion":1,"repeats":1,"requiredWtypeId1":0,"requiredWtypeId2":0,"scope":1,"speed":0,"stypeId":1,"successRate":100,"tpCost":0,"tpGain":10},
{"id":43,"animationId":66,"damage":{"critical":true,"elementId":2,"formula":"100 + a.mat * 2 - b.mdf * 2","type":1,"variance":20},"description":"","effects":[{"code":21,"dataId":11,"value1":0.1,"value2":0}],"hitType":2,"iconIndex":64,"message1":" attaque !","message2":"","mpCost":10,"name":"(M) Brasier","note":"","occasion":1,"repeats":1,"requiredWtypeId1":0,"requiredWtypeId2":0,"scope":2,"speed":0,"stypeId":1,"successRate":100,"tpCost":0,"tpGain":10},
{"id":44,"animationId":46,"damage":{"critical":true,"elementId":0,"formula":"20","type":2,"variance":20},"description":"","effects":[],"hitType":0,"iconIndex":67,"message1":" attaque !","message2":"","mpCost":0,"name":"(M) Absorbtion de mana +","note":"","occasion":1,"repeats":1,"requiredWtypeId1":0,"requiredWtypeId2":0,"scope":1,"speed":0,"stypeId":1,"successRate":100,"tpCost":0,"tpGain":0},
{"id":45,"animationId":51,"damage":{"critical":true,"elementId":0,"formula":"50","type":0,"variance":20},"description":"","effects":[{"code":31,"dataId":4,"value1":4,"value2":0}],"hitType":0,"iconIndex":73,"message1":" attaque !","message2":"","mpCost":5,"name":"(M) Boost atk m","note":"","occasion":0,"repeats":1,"requiredWtypeId1":0,"requiredWtypeId2":0,"scope":11,"speed":0,"stypeId":2,"successRate":100,"tpCost":0,"tpGain":10},
{"id":46,"animationId":128,"damage":{"critical":false,"elementId":0,"formula":"0","type":0,"variance":20},"description":"L'union fait la force magique !","effects":[{"code":31,"dataId":5,"value1":4,"value2":0}],"hitType":0,"iconIndex":81,"message1":" lance %1","message2":"","mpCost":10,"name":"Troupeau Magique","note":"","occasion":1,"repeats":1,"requiredWtypeId1":0,"requiredWtypeId2":0,"scope":8,"speed":0,"stypeId":1,"successRate":100,"tpCost":0,"tpGain":0},
{"id":47,"animationId":85,"damage":{"critical":true,"elementId":5,"formula":"100 + a.mat * 2 - b.mdf * 2","type":1,"variance":20},"description":"Magicarpe est devenue gr...\nBloub bloub !","effects":[{"code":21,"dataId":8,"value1":0.1,"value2":0}],"hitType":2,"iconIndex":67,"message1":" lance %1 !","message2":"","mpCost":10,"name":"Aqua Invocation","note":"","occasion":1,"repeats":1,"requiredWtypeId1":0,"requiredWtypeId2":0,"scope":2,"speed":0,"stypeId":2,"successRate":100,"tpCost":0,"tpGain":10},
{"id":48,"animationId":129,"damage":{"critical":true,"elementId":0,"formula":"10 + a.mat * 2 - b.mdf * 2","type":6,"variance":20},"description":"Mmmm ! Le bon mana !\nHAHAHAHAHA!","effects":[],"hitType":0,"iconIndex":69,"message1":" lance %1","message2":"","mpCost":0,"name":"Manaspiration","note":"","occasion":1,"repeats":1,"requiredWtypeId1":0,"requiredWtypeId2":0,"scope":1,"speed":0,"stypeId":1,"successRate":100,"tpCost":50,"tpGain":0},
{"id":49,"animationId":130,"damage":{"critical":true,"elementId":0,"formula":"20 + a.mat * 2 - b.mdf * 2","type":2,"variance":20},"description":"C'est flippant !\nTu vas en perdre ton mana !","effects":[],"hitType":2,"iconIndex":74,"message1":" lance %1","message2":"","mpCost":10,"name":"Flip Mana","note":"","occasion":1,"repeats":1,"requiredWtypeId1":0,"requiredWtypeId2":0,"scope":2,"speed":0,"stypeId":1,"successRate":100,"tpCost":0,"tpGain":0},
{"id":50,"animationId":86,"damage":{"critical":true,"elementId":6,"formula":"100 + a.mat * 2 - b.mdf * 2","type":1,"variance":20},"description":"","effects":[],"hitType":2,"iconIndex":68,"message1":" attaque !","message2":"","mpCost":5,"name":"(M) Attaque terrestre","note":"","occasion":1,"repeats":1,"requiredWtypeId1":0,"requiredWtypeId2":0,"scope":1,"speed":0,"stypeId":1,"successRate":100,"tpCost":0,"tpGain":10},
{"id":51,"animationId":86,"damage":{"critical":true,"elementId":6,"formula":"100 + a.mat * 2 - b.mdf * 2","type":1,"variance":20},"description":"","effects":[],"hitType":2,"iconIndex":68,"message1":" attaque !","message2":"","mpCost":5,"name":"(M) Attaque terrestre double","note":"","occasion":1,"repeats":2,"requiredWtypeId1":0,"requiredWtypeId2":0,"scope":3,"speed":0,"stypeId":1,"successRate":100,"tpCost":0,"tpGain":10},
{"id":52,"animationId":42,"damage":{"critical":true,"elementId":0,"formula":"100 + a.mat*3","type":3,"variance":20},"description":"","effects":[],"hitType":0,"iconIndex":72,"message1":" lance Guérison !","message2":"","mpCost":5,"name":"(M) guérison","note":"","occasion":0,"repeats":1,"requiredWtypeId1":0,"requiredWtypeId2":0,"scope":7,"speed":0,"stypeId":1,"successRate":100,"tpCost":0,"tpGain":10},
{"id":53,"animationId":51,"damage":{"critical":true,"elementId":0,"formula":"50","type":0,"variance":20},"description":"","effects":[{"code":31,"dataId":2,"value1":4,"value2":0}],"hitType":0,"iconIndex":73,"message1":" attaque !","message2":"","mpCost":5,"name":"(M) Boost atk ","note":"","occasion":0,"repeats":1,"requiredWtypeId1":0,"requiredWtypeId2":0,"scope":11,"speed":0,"stypeId":2,"successRate":100,"tpCost":0,"tpGain":10},
{"id":54,"animationId":126,"damage":{"critical":false,"elementId":0,"formula":"100 + a.mat * 2 - b.mdf * 2","type":0,"variance":20},"description":"","effects":[{"code":31,"dataId":2,"value1":4,"value2":0},{"code":31,"dataId":4,"value1":4,"value2":0},{"code":31,"dataId":3,"value1":4,"value2":0},{"code":31,"dataId":5,"value1":4,"value2":0},{"code":31,"dataId":6,"value1":4,"value2":0},{"code":21,"dataId":7,"value1":1,"value2":0}],"hitType":0,"iconIndex":21,"message1":" enrage !","message2":"","mpCost":0,"name":"(M) Enragement","note":"","occasion":1,"repeats":1,"requiredWtypeId1":0,"requiredWtypeId2":0,"scope":11,"speed":0,"stypeId":2,"successRate":100,"tpCost":0,"tpGain":0},
{"id":55,"animationId":86,"damage":{"critical":true,"elementId":6,"formula":"100 + a.mat * 2 - b.mdf * 2","type":1,"variance":20},"description":"","effects":[],"hitType":2,"iconIndex":68,"message1":" attaque !","message2":"","mpCost":10,"name":"(M) Attaque terrestre tous","note":"","occasion":1,"repeats":1,"requiredWtypeId1":0,"requiredWtypeId2":0,"scope":2,"speed":0,"stypeId":1,"successRate":100,"tpCost":0,"tpGain":10},
{"id":56,"animationId":56,"damage":{"critical":false,"elementId":0,"formula":"0","type":0,"variance":20},"description":"","effects":[{"code":33,"dataId":0,"value1":1,"value2":0},{"code":33,"dataId":1,"value1":1,"value2":0},{"code":33,"dataId":2,"value1":1,"value2":0},{"code":33,"dataId":3,"value1":1,"value2":0},{"code":33,"dataId":4,"value1":1,"value2":0},{"code":33,"dataId":5,"value1":1,"value2":0},{"code":33,"dataId":6,"value1":1,"value2":0},{"code":33,"dataId":7,"value1":1,"value2":0}],"hitType":0,"iconIndex":71,"message1":" attaque !","message2":"","mpCost":10,"name":"(M) Annule buff","note":"","occasion":0,"repeats":1,"requiredWtypeId1":0,"requiredWtypeId2":0,"scope":1,"speed":0,"stypeId":1,"successRate":100,"tpCost":0,"tpGain":0},
{"id":57,"animationId":65,"damage":{"critical":false,"elementId":0,"formula":"0","type":0,"variance":20},"description":"","effects":[{"code":21,"dataId":1,"value1":1,"value2":0}],"hitType":0,"iconIndex":1,"message1":" attaque !","message2":"","mpCost":20,"name":"(M) Kill","note":"","occasion":0,"repeats":1,"requiredWtypeId1":0,"requiredWtypeId2":0,"scope":1,"speed":0,"stypeId":1,"successRate":100,"tpCost":0,"tpGain":0},
{"id":58,"animationId":56,"damage":{"critical":false,"elementId":0,"formula":"0","type":0,"variance":20},"description":"","effects":[{"code":33,"dataId":0,"value1":1,"value2":0},{"code":33,"dataId":1,"value1":1,"value2":0},{"code":33,"dataId":2,"value1":1,"value2":0},{"code":33,"dataId":3,"value1":1,"value2":0},{"code":33,"dataId":4,"value1":1,"value2":0},{"code":33,"dataId":5,"value1":1,"value2":0},{"code":33,"dataId":6,"value1":1,"value2":0},{"code":33,"dataId":7,"value1":1,"value2":0}],"hitType":0,"iconIndex":71,"message1":" attaque !","message2":"","mpCost":10,"name":"(M) Annule buff tous","note":"","occasion":0,"repeats":1,"requiredWtypeId1":0,"requiredWtypeId2":0,"scope":2,"speed":0,"stypeId":1,"successRate":100,"tpCost":0,"tpGain":0},
{"id":59,"animationId":2,"damage":{"critical":true,"elementId":7,"formula":"100 + a.mat * 2 - b.mdf * 2","type":1,"variance":20},"description":"","effects":[],"hitType":2,"iconIndex":69,"message1":" attaque !","message2":"","mpCost":10,"name":"(M) Attaque aérienne tous","note":"","occasion":1,"repeats":1,"requiredWtypeId1":0,"requiredWtypeId2":0,"scope":2,"speed":0,"stypeId":2,"successRate":100,"tpCost":0,"tpGain":10},
{"id":60,"animationId":71,"damage":{"critical":true,"elementId":3,"formula":"100 + a.mat * 2 - b.mdf * 2","type":1,"variance":20},"description":"","effects":[{"code":21,"dataId":12,"value1":0.05,"value2":0}],"hitType":2,"iconIndex":65,"message1":" attaque !","message2":"","mpCost":5,"name":"(M) Glace","note":"","occasion":1,"repeats":1,"requiredWtypeId1":0,"requiredWtypeId2":0,"scope":1,"speed":0,"stypeId":1,"successRate":100,"tpCost":0,"tpGain":10},
{"id":61,"animationId":71,"damage":{"critical":true,"elementId":3,"formula":"100 + a.mat * 2 - b.mdf * 2","type":1,"variance":20},"description":"","effects":[{"code":21,"dataId":12,"value1":0.1,"value2":0}],"hitType":2,"iconIndex":65,"message1":" attaque !","message2":"","mpCost":10,"name":"(M) Glacier","note":"","occasion":1,"repeats":1,"requiredWtypeId1":0,"requiredWtypeId2":0,"scope":2,"speed":0,"stypeId":1,"successRate":100,"tpCost":0,"tpGain":10},
{"id":62,"animationId":58,"damage":{"critical":true,"elementId":-1,"formula":"a.atk * 4 - b.def * 2","type":5,"variance":20},"description":"","effects":[],"hitType":1,"iconIndex":76,"message1":" attaque !","message2":"","mpCost":0,"name":"(M) Vampirisation","note":"","occasion":1,"repeats":1,"requiredWtypeId1":0,"requiredWtypeId2":0,"scope":1,"speed":0,"stypeId":0,"successRate":100,"tpCost":0,"tpGain":10},
{"id":63,"animationId":33,"damage":{"critical":false,"elementId":0,"formula":"a.atk * 4 - b.def * ","type":1,"variance":20},"description":"","effects":[{"code":21,"dataId":7,"value1":1,"value2":0}],"hitType":2,"iconIndex":5,"message1":" attaque !","message2":"","mpCost":0,"name":"(M) Danse enrageante","note":"","occasion":1,"repeats":1,"requiredWtypeId1":0,"requiredWtypeId2":0,"scope":1,"speed":0,"stypeId":1,"successRate":100,"tpCost":0,"tpGain":0},
{"id":64,"animationId":0,"damage":{"critical":false,"elementId":0,"formula":"0","type":0,"variance":20},"description":"","effects":[{"code":21,"dataId":5,"value1":1,"value2":0}],"hitType":0,"iconIndex":70,"message1":"","message2":"","mpCost":10,"name":"(M) Lumière aveuglante","note":"","occasion":0,"repeats":1,"requiredWtypeId1":0,"requiredWtypeId2":0,"scope":1,"speed":0,"stypeId":1,"successRate":100,"tpCost":0,"tpGain":0},
{"id":65,"animationId":0,"damage":{"critical":false,"elementId":0,"formula":"0","type":0,"variance":20},"description":"","effects":[{"code":21,"dataId":5,"value1":0.5,"value2":0}],"hitType":0,"iconIndex":70,"message1":"","message2":"","mpCost":20,"name":"(M) Lumière aveuglante tous","note":"","occasion":0,"repeats":1,"requiredWtypeId1":0,"requiredWtypeId2":0,"scope":2,"speed":0,"stypeId":1,"successRate":100,"tpCost":0,"tpGain":0},
{"id":66,"animationId":65,"damage":{"critical":false,"elementId":0,"formula":"0","type":0,"variance":20},"description":"","effects":[{"code":21,"dataId":1,"value1":0.5,"value2":0}],"hitType":0,"iconIndex":1,"message1":" attaque !","message2":"","mpCost":20,"name":"(M) Kill wf","note":"","occasion":0,"repeats":1,"requiredWtypeId1":0,"requiredWtypeId2":0,"scope":1,"speed":0,"stypeId":1,"successRate":100,"tpCost":0,"tpGain":0},
{"id":67,"animationId":5,"damage":{"critical":true,"elementId":4,"formula":"100 + a.mat * 2 - b.mdf * 2","type":1,"variance":20},"description":"","effects":[],"hitType":2,"iconIndex":66,"message1":" attaque !","message2":"","mpCost":10,"name":"(M) Attaque foudroyante tous","note":"","occasion":1,"repeats":1,"requiredWtypeId1":0,"requiredWtypeId2":0,"scope":2,"speed":0,"stypeId":2,"successRate":100,"tpCost":0,"tpGain":10},
{"id":68,"animationId":81,"damage":{"critical":true,"elementId":5,"formula":"100 + a.mat * 2 - b.mdf * 2","type":1,"variance":20},"description":"","effects":[],"hitType":2,"iconIndex":67,"message1":" attaque !","message2":"","mpCost":10,"name":"(M) Attaque aquatique tous","note":"","occasion":1,"repeats":1,"requiredWtypeId1":0,"requiredWtypeId2":0,"scope":2,"speed":0,"stypeId":2,"successRate":100,"tpCost":0,"tpGain":10},
{"id":69,"animationId":86,"damage":{"critical":true,"elementId":6,"formula":"100 + a.mat * 2 - b.mdf * 2","type":1,"variance":20},"description":"","effects":[],"hitType":2,"iconIndex":68,"message1":" attaque !","message2":"","mpCost":10,"name":"(M) Attaque terrestre tous","note":"","occasion":1,"repeats":1,"requiredWtypeId1":0,"requiredWtypeId2":0,"scope":2,"speed":0,"stypeId":1,"successRate":100,"tpCost":0,"tpGain":10},
{"id":70,"animationId":28,"damage":{"critical":false,"elementId":0,"formula":"a.mat * 1000","type":1,"variance":20},"description":"GRAOU GRRRRR ! ","effects":[],"hitType":2,"iconIndex":1,"message1":" lance %1 !","message2":"","mpCost":0,"name":"Rage du Chachat","note":"","occasion":1,"repeats":1,"requiredWtypeId1":0,"requiredWtypeId2":0,"scope":2,"speed":0,"stypeId":1,"successRate":100,"tpCost":100,"tpGain":0},
{"id":71,"animationId":30,"damage":{"critical":false,"elementId":0,"formula":"a.atk * 1000","type":1,"variance":20},"description":"BLOUB BLOUB BADABABWAAAA ! ","effects":[],"hitType":1,"iconIndex":1,"message1":" lance %1 !","message2":"","mpCost":0,"name":"Rage de la Carpe","note":"","occasion":1,"repeats":1,"requiredWtypeId1":0,"requiredWtypeId2":0,"scope":2,"speed":0,"stypeId":2,"successRate":100,"tpCost":100,"tpGain":0},
{"id":72,"animationId":135,"damage":{"critical":false,"elementId":0,"formula":"a.mat * 1000","type":1,"variance":20},"description":"MWAHAHAHAHA !!!","effects":[],"hitType":2,"iconIndex":1,"message1":" lance %1 !","message2":"","mpCost":0,"name":"Rage du Pyromaniaque","note":"","occasion":1,"repeats":1,"requiredWtypeId1":0,"requiredWtypeId2":0,"scope":2,"speed":0,"stypeId":1,"successRate":100,"tpCost":100,"tpGain":0},
{"id":73,"animationId":136,"damage":{"critical":false,"elementId":0,"formula":"a.mat * 1000","type":5,"variance":20},"description":"MEUUUUUUUUUUUUUUH !","effects":[],"hitType":2,"iconIndex":1,"message1":" lance %1 !","message2":"","mpCost":0,"name":"Rage de la Vache Volante","note":"","occasion":1,"repeats":1,"requiredWtypeId1":0,"requiredWtypeId2":0,"scope":2,"speed":0,"stypeId":1,"successRate":100,"tpCost":100,"tpGain":0}
]