{
"autoplayBgm":true,"autoplayBgs":true,"battleback1Name":"","battleback2Name":"","bgm":{"name":"Castle1","pan":0,"pitch":50,"volume":20},"bgs":{"name":"Wind","pan":20,"pitch":70,"volume":5},"disableDashing":false,"displayName":"Souterrains (Entrée)","encounterList":[],"encounterStep":30,"height":18,"note":"","parallaxLoopX":false,"parallaxLoopY":false,"parallaxName":"","parallaxShow":true,"parallaxSx":0,"parallaxSy":0,"scrollType":0,"specifyBattleback":false,"tilesetId":3,"width":13,
"data":[7331,7330,7330,7330,7330,7330,7330,7330,7330,7330,7330,7330,7334,7329,7328,7328,7328,7328,7328,7328,7328,7328,7328,7328,7328,7332,7329,7328,7328,7328,7328,7328,7328,7328,7328,7328,7328,7328,7332,7337,7336,7336,7336,7336,7336,7336,7336,7336,7336,7336,7336,7340,1573,1573,1573,1573,1573,1573,1573,1573,1573,1573,1573,1573,1573,1573,1573,1573,1573,1573,1573,1573,1573,1573,1573,1573,1573,1573,1573,1573,1573,1637,1573,1573,1573,1573,1573,1573,1573,1573,1573,1573,1573,1573,1573,1573,1573,1573,1573,1573,1573,1573,1573,1573,1573,1573,1573,1573,1573,1573,1573,1573,1573,1573,1573,1573,1573,1573,1573,1573,1573,1573,1573,1573,1573,1573,1573,1573,1573,1573,1573,1573,1573,1573,1573,1573,1573,1573,1573,1573,1573,1637,1573,1573,1573,1637,1573,1573,1573,1573,1573,1637,1573,1573,1573,1573,1637,1637,1637,1637,1573,1573,1573,1573,1573,1573,1573,1573,1573,1573,1637,1637,1573,1573,1573,1573,1573,1573,1573,1573,1573,1573,1573,1573,1637,1573,1573,1573,1573,1573,1573,1573,1573,1573,1573,1573,1573,1573,1573,1573,1573,1573,1573,1573,1573,1573,1573,1573,1573,1573,1573,1573,1573,1573,1573,1573,1573,1573,1573,1573,1573,1544,1544,1544,1544,1544,1544,1544,1544,1544,1544,1544,1544,1544,0,0,0,0,0,0,0,0,0,0,0,0,0,0,0,0,0,0,0,0,0,0,0,0,0,0,0,0,0,0,0,0,0,0,0,0,0,0,0,0,0,0,0,0,0,0,0,0,0,0,0,0,0,0,0,0,0,0,0,0,0,0,0,0,0,0,0,0,0,0,0,0,0,3150,0,0,0,0,0,0,0,0,0,0,0,0,0,0,0,0,0,0,0,0,0,0,0,0,0,0,0,0,0,0,0,0,0,0,0,0,3150,0,0,0,0,0,0,0,0,0,0,0,0,0,0,0,0,0,0,0,0,0,0,0,0,0,0,0,0,0,0,0,0,3508,3508,3524,0,0,0,0,0,0,0,0,0,0,3488,3488,3512,0,0,0,0,0,0,0,0,0,0,3488,3488,3512,0,0,0,0,0,0,0,0,0,0,3488,3492,3526,0,0,0,0,0,0,0,0,0,0,3488,3512,0,0,0,0,0,0,0,0,0,3150,0,3516,3526,0,0,0,0,0,0,0,0,0,0,0,0,0,0,0,0,0,0,0,0,0,0,0,0,0,0,0,0,0,0,0,0,0,0,0,0,0,0,0,0,0,0,0,0,0,0,0,0,0,0,0,0,0,0,0,0,0,0,0,0,0,0,0,0,0,0,0,0,0,0,0,0,0,0,0,0,0,0,0,0,0,0,0,0,0,0,0,0,0,0,0,0,0,0,0,0,0,0,0,0,9,0,0,0,0,0,0,0,0,0,0,0,0,0,0,0,0,0,0,0,0,0,0,0,0,0,0,0,0,0,0,0,0,0,0,0,0,0,0,0,0,0,0,0,0,0,0,0,0,0,0,0,0,0,0,0,0,0,0,0,0,0,0,0,0,0,0,0,0,0,0,0,0,0,0,0,0,0,0,0,0,0,0,0,0,0,0,0,0,0,0,0,0,0,0,0,0,0,0,0,0,0,0,0,0,0,0,0,0,0,0,0,0,0,0,0,0,0,0,0,0,0,0,0,0,0,0,0,0,0,0,0,0,0,0,0,0,0,0,0,0,0,0,0,0,0,0,0,0,0,0,0,0,0,0,0,0,0,0,0,0,0,0,0,238,0,0,228,0,0,0,0,230,0,0,0,0,0,0,0,236,0,0,0,0,238,0,0,228,0,0,0,0,0,0,229,0,0,0,0,0,236,0,171,0,239,0,0,237,0,0,0,0,223,0,0,0,0,0,0,0,0,0,223,10,207,0,0,0,0,0,0,0,0,10,0,207,207,0,0,0,0,0,0,0,0,0,0,0,207,0,0,0,0,0,0,0,0,0,0,0,0,0,0,0,0,0,0,0,0,0,0,0,0,207,0,0,0,0,0,0,0,0,0,0,0,0,0,0,0,0,0,0,0,0,0,0,0,0,0,0,0,0,0,0,0,207,0,0,0,0,0,0,0,0,0,0,0,0,0,0,0,0,0,0,0,0,0,0,0,0,0,0,0,0,0,0,0,223,0,0,0,0,0,0,0,0,0,0,0,0,0,0,0,0,0,0,0,0,0,0,0,0,0,0,223,0,0,0,0,0,0,0,0,0,0,207,0,0,0,0,0,0,0,0,0,0,0,0,0,0,0,0,0,0,0,0,0,0,0,0,0,0,0,0,0,0,0,0,0,0,0,0,0,0,0,0,0,0,0,0,0,0,0,0,0,0,0,0,0,0,0,0,0,0,0,0,0,0,0,0,0,0,0,0,0,0,0,0,0,0,0,0,0,0,0,0,0,0,0,0,0,0,0,0,0,0,0,0,0,0,0,0,0,0,0,0,0,0,0,0,0,0,0,0,0,0,0,0,0,0,0,0,0,0,0,0,0,0,0,0,0,0,0,0,0,0,0,0,0,0,0,0,0,0,0,0,0,0,0,0,0,0,0,0,0,0,0,0,0,0,0,0,0,0,0,0,0,0,0,0,0,0,0,0,0,0,0,0,0,0,0,0,0,0,0,0,0,0,0,0,0,0,0,0,0,0,0,0,0,0,0,0,0,0,0,0,0,0,0,0,0,0,0,0,0,0,0,0,0,0,0,0,0,0,0,0,0,0,0,0,0,0,0,0,0,0,0,0,0,0,0,0,0,0,0,0,0,0,0,0,0,0,0,0,0,0,0,0,0,0,0,0,0,0,0,0,0,0,0,0,0,0,0,0,0,0,0,0,0,0,0,0,0,0,0,0,0,0,0,0,0,0,0,0,0,0,0,0,0,0,0,0,0,0,0,0,0,0,0,0,0,0,0,0,0,0,0,0,0,0,0,0,0,0,0,0,0,0,0,0,0,0,0,0,0,0,0,0,0,0,0,0,0,0,0,0,0,0,0,0,0,0,0,0,0,0,0,0,0,0,0,0,0,0,0,0,0,0,0,0,0,0,0,0,0,0,0,0,0,0,0,0,0,0,0,0,0,0,0,0,0,0,0,0,0,0,0,0,0,0,0,0,0,0,0,0,0,0,0,0,0,0,0,0,0,0,0,0,0,0,0,0,0,0,0,0,0,0,0,0,0,0,0,0,0,0,0,0,0,0,0,0,0,0,0,0,0,0,0,0,0,0,0,0,0,0,0,0,0,0,0,0,0,0,0,0,0,0,0,0,0,0,0,0,0,0,0,0,0,0,0,0,0,0,0,0,0,0,0],
"events":[
null,
{"id":1,"name":"EV001","note":"","pages":[{"conditions":{"actorId":1,"actorValid":false,"itemId":1,"itemValid":false,"selfSwitchCh":"A","selfSwitchValid":false,"switch1Id":1,"switch1Valid":false,"switch2Id":1,"switch2Valid":false,"variableId":1,"variableValid":false,"variableValue":0},"directionFix":false,"image":{"characterIndex":0,"characterName":"","direction":2,"pattern":0,"tileId":0},"list":[{"code":101,"indent":0,"parameters":["Jeremheu",0,0,2]},{"code":401,"indent":0,"parameters":["\"... gauc ... teau roya ..."]},{"code":401,"indent":0,"parameters":["A dro ... emp ...\""]},{"code":101,"indent":0,"parameters":["Jeremheu",0,0,2]},{"code":401,"indent":0,"parameters":["La plaque est cassée par endroits."]},{"code":0,"indent":0,"parameters":[]}],"moveFrequency":3,"moveRoute":{"list":[{"code":0,"parameters":[]}],"repeat":true,"skippable":false,"wait":false},"moveSpeed":3,"moveType":0,"priorityType":1,"stepAnime":false,"through":false,"trigger":0,"walkAnime":true}],"x":6,"y":3},
{"id":2,"name":"EV002","note":"","pages":[{"conditions":{"actorId":1,"actorValid":false,"itemId":1,"itemValid":false,"selfSwitchCh":"A","selfSwitchValid":false,"switch1Id":1,"switch1Valid":false,"switch2Id":1,"switch2Valid":false,"variableId":1,"variableValid":false,"variableValue":0},"directionFix":false,"image":{"characterIndex":6,"characterName":"","direction":2,"pattern":0,"tileId":0},"list":[{"code":250,"indent":0,"parameters":[{"name":"Open1","pan":0,"pitch":100,"volume":90}]},{"code":205,"indent":0,"parameters":[0,{"list":[{"code":17},{"code":15,"parameters":[3]},{"code":18},{"code":15,"parameters":[3]},{"code":19},{"code":37},{"code":0}],"repeat":false,"skippable":false,"wait":true}]},{"code":505,"indent":0,"parameters":[{"code":17}]},{"code":505,"indent":0,"parameters":[{"code":15,"parameters":[3]}]},{"code":505,"indent":0,"parameters":[{"code":18}]},{"code":505,"indent":0,"parameters":[{"code":15,"parameters":[3]}]},{"code":505,"indent":0,"parameters":[{"code":19}]},{"code":505,"indent":0,"parameters":[{"code":37}]},{"code":205,"indent":0,"parameters":[-1,{"list":[{"code":12},{"code":0}],"repeat":false,"skippable":true,"wait":true}]},{"code":505,"indent":0,"parameters":[{"code":12}]},{"code":250,"indent":0,"parameters":[{"name":"Move1","pan":0,"pitch":100,"volume":90}]},{"code":201,"indent":0,"parameters":[0,114,15,17,0,0]},{"code":0,"indent":0,"parameters":[]}],"moveFrequency":3,"moveRoute":{"list":[{"code":0,"parameters":[]}],"repeat":true,"skippable":false,"wait":false},"moveSpeed":3,"moveType":0,"priorityType":1,"stepAnime":false,"through":false,"trigger":1,"walkAnime":false}],"x":6,"y":17},
{"id":3,"name":"EV003","note":"","pages":[{"conditions":{"actorId":1,"actorValid":false,"itemId":1,"itemValid":false,"selfSwitchCh":"A","selfSwitchValid":false,"switch1Id":1,"switch1Valid":false,"switch2Id":1,"switch2Valid":false,"variableId":1,"variableValid":false,"variableValue":0},"directionFix":false,"image":{"tileId":0,"characterName":"Vieux_Lamrock","direction":2,"pattern":1,"characterIndex":0},"list":[{"code":101,"indent":0,"parameters":["Vieux_Lamrock",0,0,2]},{"code":401,"indent":0,"parameters":["L'accès au temple est gardé par de nombreux "]},{"code":401,"indent":0,"parameters":["esprits et illusions."]},{"code":401,"indent":0,"parameters":["Celui qui n'est pas mené par un éclairé"]},{"code":401,"indent":0,"parameters":["risque gros."]},{"code":101,"indent":0,"parameters":["Mheutin",0,0,2]},{"code":401,"indent":0,"parameters":["Rassurant..."]},{"code":101,"indent":0,"parameters":["Vieux_Lamrock",0,0,2]},{"code":401,"indent":0,"parameters":["Je vous guiderai ; mais certain "]},{"code":401,"indent":0,"parameters":["esprits vont vouloir vous tromper."]},{"code":401,"indent":0,"parameters":["Faites attention à ne pas "]},{"code":401,"indent":0,"parameters":["les confondres avec moi..."]},{"code":101,"indent":0,"parameters":["Mheuliann",0,0,2]},{"code":401,"indent":0,"parameters":["Bien !"]},{"code":101,"indent":0,"parameters":["Vieux_Lamrock",0,0,2]},{"code":401,"indent":0,"parameters":["A tout de suite."]},{"code":205,"indent":0,"parameters":[0,{"list":[{"code":42,"parameters":[100],"indent":0},{"code":42,"parameters":[80],"indent":0},{"code":42,"parameters":[60],"indent":0},{"code":42,"parameters":[40],"indent":0},{"code":42,"parameters":[20],"indent":0},{"code":42,"parameters":[0],"indent":0},{"code":29,"parameters":[6],"indent":0},{"code":30,"parameters":[5],"indent":0},{"code":37,"indent":null},{"code":4,"indent":null},{"code":4,"indent":null},{"code":4,"indent":null},{"code":4,"indent":null},{"code":0}],"repeat":false,"skippable":false,"wait":true}]},{"code":505,"indent":0,"parameters":[{"code":42,"parameters":[100],"indent":0}]},{"code":505,"indent":0,"parameters":[{"code":42,"parameters":[80],"indent":0}]},{"code":505,"indent":0,"parameters":[{"code":42,"parameters":[60],"indent":0}]},{"code":505,"indent":0,"parameters":[{"code":42,"parameters":[40],"indent":0}]},{"code":505,"indent":0,"parameters":[{"code":42,"parameters":[20],"indent":0}]},{"code":505,"indent":0,"parameters":[{"code":42,"parameters":[0],"indent":0}]},{"code":505,"indent":0,"parameters":[{"code":29,"parameters":[6],"indent":0}]},{"code":505,"indent":0,"parameters":[{"code":30,"parameters":[5],"indent":0}]},{"code":505,"indent":0,"parameters":[{"code":37,"indent":null}]},{"code":505,"indent":0,"parameters":[{"code":4,"indent":null}]},{"code":505,"indent":0,"parameters":[{"code":4,"indent":null}]},{"code":505,"indent":0,"parameters":[{"code":4,"indent":null}]},{"code":505,"indent":0,"parameters":[{"code":4,"indent":null}]},{"code":0,"indent":0,"parameters":[]}],"moveFrequency":5,"moveRoute":{"list":[{"code":42,"parameters":[120],"indent":null},{"code":0,"parameters":[]}],"repeat":false,"skippable":false,"wait":false},"moveSpeed":3,"moveType":3,"priorityType":1,"stepAnime":false,"through":true,"trigger":0,"walkAnime":true}],"x":11,"y":6},
{"id":4,"name":"EV004","note":"","pages":[{"conditions":{"actorId":1,"actorValid":false,"itemId":1,"itemValid":false,"selfSwitchCh":"A","selfSwitchValid":false,"switch1Id":1,"switch1Valid":false,"switch2Id":1,"switch2Valid":false,"variableId":1,"variableValid":false,"variableValue":0},"directionFix":false,"image":{"characterIndex":0,"characterName":"","direction":2,"pattern":0,"tileId":0},"list":[{"code":121,"indent":0,"parameters":[1,1,1]},{"code":121,"indent":0,"parameters":[6,6,1]},{"code":121,"indent":0,"parameters":[7,7,1]},{"code":121,"indent":0,"parameters":[9,9,1]},{"code":250,"indent":0,"parameters":[{"name":"Move1","pan":0,"pitch":100,"volume":90}]},{"code":201,"indent":0,"parameters":[0,122,0,34,6,0]},{"code":0,"indent":0,"parameters":[]}],"moveFrequency":3,"moveRoute":{"list":[{"code":0,"parameters":[]}],"repeat":true,"skippable":false,"wait":false},"moveSpeed":3,"moveType":0,"priorityType":0,"stepAnime":false,"through":false,"trigger":1,"walkAnime":true}],"x":11,"y":5}
]
}